60;30;10;65;30;5;50;35;15;70;24;7;50;10;40;60;30;10
70;20;10;55;43;2;25;60;15;53;45;2;60;30;10;40;50;10
70;20;10;70;25;5;35;55;10;64;32;4;70;20;10;40;50;10
50;30;20;50;30;20;50;35;15;66;22;12;60;10;30;60;20;20
85;10;5;90;5;5;80;13;7;92;6;3;90;5;5;80;10;10
50;45;5;45;50;5;44;48;8;51;45;4;50;40;10;50;40;10
70;25;5;70;28;2;65;28;7;82;17;1;80;15;5;60;35;5
40;40;20;60;25;15;30;53;17;50;36;14;50;35;15;40;40;20
45;45;10;40;50;10;58;40;2;44;48;8;30;60;10;40;40;20
45;45;10;50;40;10;30;57;13;44;45;11;40;40;20;40;40;20
30;65;5;40;50;10;30;63;7;33;50;17;30;60;10;35;60;5
60;30;10;60;30;10;35;60;5;52;38;10;50;30;20;50;40;10
30;60;10;25;70;5;25;71;4;21;69;10;40;40;20;15;70;15
70;10;20;80;5;15;70;23;7;70;15;16;80;10;10;70;20;10
45;45;10;35;45;10;40;50;10;52;36;12;40;50;10;30;55;15
10;80;10;20;75;5;20;74;6;9;77;13;20;50;30;15;70;15
70;10;20;25;35;40;58;35;17;21;41;39;20;20;60;40;30;30
45;45;10;40;55;5;38;52;10;51;42;7;35;35;30;30;50;20
60;20;20;55;20;25;37;43;20;32;34;34;30;60;10;30;30;40
75;20;5;70;25;5;70;23;7;79;14;7;70;15;15;80;15;5
60;30;10;70;20;10;37;50;13;58;29;13;30;10;60;40;40;20
80;10;10;70;15;15;80;14;6;76;6;18;80;5;15;70;20;10
80;15;5;85;5;10;85;8;7;85;5;9;50;5;45;80;10;10
20;70;10;30;60;10;30;65;5;32;59;9;20;70;10;30;60;10
40;40;20;70;20;10;30;42;28;53;21;26;35;20;45;40;30;30
80;10;10;90;7;3;75;15;10;91;6;3;50;10;40;70;10;20
70;25;5;90;5;5;75;10;15;93;3;4;70;5;25;80;5;15
60;20;20;70;10;20;50;38;12;73;18;9;30;30;40;60;20;20
45;45;10;35;35;30;45;50;5;30;34;36;60;10;30;40;30;30
65;30;5;60;35;5;39;58;3;52;45;2;60;30;10;30;60;10
60;30;10;40;30;20;34;54;12;66;30;4;40;30;30;60;30;10
70;25;5;60;30;10;40;49;11;66;22;12;50;20;30;60;30;10
60;20;20;60;20;20;60;33;7;65;20;15;50;10;40;60;20;20
45;45;10;40;20;30;33;50;17;32;17;52;40;20;40;40;30;30
45;45;10;70;25;5;40;50;10;63;24;13;50;20;30;40;40;20
90;5;5;60;10;30;75;20;5;81;12;7;60;10;30;80;10;10
45;50;5;45;45;5;39;51;10;52;41;6;50;40;10;30;60;10
