70;20;10;70;5;25;30;15;55;70;24;7;70;10;20;35;5;60
45;50;5;65;30;5;40;40;20;53;45;2;60;15;25;35;25;40
25;70;5;40;50;10;40;45;15;64;32;4;60;20;20;30;20;50
30;50;20;40;20;40;35;35;30;66;22;12;50;20;30;25;10;65
80;5;15;90;3;7;80;8;12;92;6;3;95;1;4;80;10;10
55;40;5;70;15;15;45;45;10;51;45;4;80;10;10;60;30;10
30;50;20;50;25;25;35;50;15;82;17;1;70;15;15;50;25;25
30;50;20;40;35;25;30;45;25;50;36;14;50;20;30;50;20;30
50;45;5;60;30;10;55;40;15;44;48;8;70;20;10;65;15;20
50;35;15;60;25;15;20;65;15;44;45;11;60;20;20;50;25;25
30;50;20;35;35;30;18;72;10;33;50;17;60;20;20;40;30;30
50;45;5;70;15;15;29;62;9;52;38;10;50;20;30;40;20;40
40;55;5;40;45;15;24;72;4;21;69;10;60;20;20;60;25;15
60;10;30;70;10;20;33;50;17;70;15;16;70;10;20;40;10;50
50;45;5;65;25;10;35;47;18;52;36;12;40;30;30;50;20;30
10;60;30;20;70;10;10;75;25;9;77;13;30;40;30;35;35;30
50;10;40;80;5;15;40;25;35;21;41;39;40;5;55;30;10;60
40;55;5;40;25;35;30;45;25;51;42;7;40;30;30;60;20;20
30;35;35;40;25;35;20;40;40;32;34;34;30;20;50;35;30;35
80;15;5;70;15;15;60;25;15;79;14;7;70;10;20;70;10;20
40;40;20;60;10;30;35;40;25;58;29;13;40;20;40;40;10;50
89;10;1;80;10;10;70;22;8;76;6;18;80;10;10;80;10;10
60;10;30;50;5;45;55;15;30;85;5;9;50;10;40;50;10;40
20;60;20;40;30;30;23;70;7;32;59;9;50;20;30;30;35;35
20;40;40;40;15;45;25;40;35;53;21;26;40;10;50;30;10;60
70;20;10;80;5;15;60;30;10;91;6;3;70;5;25;40;5;55
50;25;25;80;5;15;40;35;25;93;3;4;70;5;25;55;5;40
30;40;30;60;15;25;23;66;11;73;18;9;50;15;35;40;10;50
50;40;10;70;15;15;22;68;10;30;34;36;60;10;30;40;10;50
60;30;10;55;35;10;24;72;4;52;45;2;70;20;10;30;50;20
20;50;30;35;35;30;20;60;20;66;30;4;40;20;40;40;20;40
40;40;20;55;20;25;33;34;33;66;22;12;50;15;35;50;10;40
50;10;40;55;5;40;45;30;25;65;20;15;50;10;40;60;10;30
40;50;10;35;30;35;25;40;35;32;17;52;40;20;40;40;20;40
50;35;15;75;10;15;35;45;20;63;24;13;40;20;40;40;20;40
90;5;5;80;5;15;68;19;13;81;12;7;70;10;20;85;5;10
60;35;5;50;45;5;16;79;5;52;41;6;40;50;10;60;30;10
